covid19_mhlw_bootstrap.utf8
…
　

陽性者数

PCR検査で陽性が確定した「陽性者数」のデータ。厚生労働省が公開している陽者数のデータは単日のデータのみ。

 R source

"https://www.mhlw.go.jp/content/pcr_positive_daily.csv" %>% 
  readr::read_csv()

 R output

## # A tibble: 297 x 2
##    日付      `PCR 検査陽性者数(単日)`
##                            
##  1 2020/1/16                        1
##  2 2020/1/17                        0
##  3 2020/1/18                        0
##  4 2020/1/19                        0
##  5 2020/1/20                        0
##  6 2020/1/21                        0
##  7 2020/1/22                        0
##  8 2020/1/23                        0
##  9 2020/1/24                        1
## 10 2020/1/25                        1
## # … with 287 more rows

　

死亡者数

死亡者数のデータは、なぜか累計データだけが公開されている。

 R source

"https://www.mhlw.go.jp/content/death_total.csv" %>% 
  readr::read_csv()

 R output

## # A tibble: 268 x 2
##    日付      死亡者数
##            
##  1 2020/2/14        1
##  2 2020/2/15        1
##  3 2020/2/16        1
##  4 2020/2/17        1
##  5 2020/2/18        1
##  6 2020/2/19        1
##  7 2020/2/20        1
##  8 2020/2/21        1
##  9 2020/2/22        1
## 10 2020/2/23        1
## # … with 258 more rows

　

入院治療等を要する者の数

いわゆる無症状患者などの軽症患者を除く陽性者の数。各報告日時点の集計値となっている。

 R source

"https://www.mhlw.go.jp/content/cases_total.csv" %>% 
  readr::read_csv()

 R output

## # A tibble: 278 x 2
##    日付      入院治療を要する者
##                      
##  1 2020/2/4                  15
##  2 2020/2/5                  16
##  3 2020/2/6                  12
##  4 2020/2/7                  12
##  5 2020/2/8                   7
##  6 2020/2/9                   7
##  7 2020/2/10                  7
##  8 2020/2/11                  6
##  9 2020/2/12                  6
## 10 2020/2/13                  6
## # … with 268 more rows

　

PCR検査実施人数

件数ベースと人数ベースのデータが混在しているため数値が過大な傾向になっている。陽性者数と同じく単日。ただし、異なる数を合算しているので目安程度にしかならないと思われる。

 R source

"https://www.mhlw.go.jp/content/pcr_tested_daily.csv" %>% 
  readr::read_csv()

 R output

## # A tibble: 274 x 2
##    日付      `PCR 検査実施件数(単日)`
##                            
##  1 2020/2/5                         4
##  2 2020/2/6                        19
##  3 2020/2/7                         9
##  4 2020/2/8                         4
##  5 2020/2/9                        10
##  6 2020/2/10                       12
##  7 2020/2/11                        4
##  8 2020/2/12                       10
##  9 2020/2/13                       16
## 10 2020/2/14                       43
## # … with 264 more rows
…
df_mhlw <- "https://www.mhlw.go.jp/content/pcr_positive_daily.csv" %>% 
  readr::read_csv() %>% 
  dplyr::mutate(date = lubridate::as_date(`日付`)) %>% 
  tidyr::complete(date = seq.Date(from = min(date), to = max(date), by = "day")) %>% 
  dplyr::mutate(n = as.integer(`PCR 検査陽性者数(単日)`),
                diff = lagdiff(n),
                cum = cumsum(n),
                ma7 = ma7(n)) %>% 
  dplyr::select(date, n, diff, cum, ma7)

df_mhlw

 R output

## # A tibble: 297 x 5
##    date           n  diff   cum    ma7
##             
##  1 2020-01-16     1     1     1 NA    
##  2 2020-01-17     0    -1     1 NA    
##  3 2020-01-18     0     0     1 NA    
##  4 2020-01-19     0     0     1 NA    
##  5 2020-01-20     0     0     1 NA    
##  6 2020-01-21     0     0     1 NA    
##  7 2020-01-22     0     0     1  0.143
##  8 2020-01-23     0     0     1  0    
##  9 2020-01-24     1     1     2  0.143
## 10 2020-01-25     1     0     3  0.286
## # … with 287 more rows
…
dead_mhlw

 R output

## # A tibble: 268 x 5
##    date        dead diff_dead cum_dead ma7_dead
##                      
##  1 2020-02-14     1         1        1   NA    
##  2 2020-02-15     0        -1        1   NA    
##  3 2020-02-16     0         0        1   NA    
##  4 2020-02-17     0         0        1   NA    
##  5 2020-02-18     0         0        1   NA    
##  6 2020-02-19     0         0        1   NA    
##  7 2020-02-20     0         0        1    0.143
##  8 2020-02-21     0         0        1    0    
##  9 2020-02-22     0         0        1    0    
## 10 2020-02-23     0         0        1    0    
## # … with 258 more rows
…
 R source

patient_mhlw <- "https://www.mhlw.go.jp/content/cases_total.csv" %>% 
  readr::read_csv() %>% 
  dplyr::mutate(date = lubridate::as_date(`日付`)) %>% 
  tidyr::complete(date = seq.Date(from = min(date), to = max(date), by = "day")) %>% 
  dplyr::mutate(patient = as.integer(`入院治療を要する者`),
                diff_patient = lagdiff(patient)) %>% 
  dplyr::select(date, patient, diff_patient)
patient_mhlw

 R output

## # A tibble: 278 x 3
##    date       patient diff_patient
##                   
##  1 2020-02-04      15           15
##  2 2020-02-05      16            1
##  3 2020-02-06      12           -4
##  4 2020-02-07      12            0
##  5 2020-02-08       7           -5
##  6 2020-02-09       7            0
##  7 2020-02-10       7            0
##  8 2020-02-11       6           -1
##  9 2020-02-12       6            0
## 10 2020-02-13       6            0
## # … with 268 more rows
…
pcr_mhlw <- "https://www.mhlw.go.jp/content/pcr_tested_daily.csv" %>% 
  readr::read_csv() %>% 
  dplyr::mutate(date = lubridate::as_date(`日付`),
                pcr = as.integer(`PCR 検査実施件数(単日)`)) %>% 
  dplyr::select(date, pcr) %>% 
  tidyr::complete(date = seq.Date(from = min(date), to = max(date), by = "day"),
                  fill = list(pcr = 0L)) %>% 
  dplyr::mutate(cum_pcr = cumsum(pcr),
                diff_pcr = lagdiff(pcr),
                ma7_pcr = ma7(pcr))
pcr_mhlw

 R output

## # A tibble: 277 x 5
##    date         pcr cum_pcr diff_pcr ma7_pcr
##                   
##  1 2020-02-05     4       4        4   NA   
##  2 2020-02-06    19      23       15   NA   
##  3 2020-02-07     9      32      -10   NA   
##  4 2020-02-08     4      36       -5   NA   
##  5 2020-02-09    10      46        6   NA   
##  6 2020-02-10    12      58        2   NA   
##  7 2020-02-11     4      62       -8    8.86
##  8 2020-02-12    10      72        6    9.71
##  9 2020-02-13    16      88        6    9.29
## 10 2020-02-14    43     131       27   14.1 
## # … with 267 more rows
…
 R output

## # A tibble: 297 x 15
##    date           n  diff   cum    ma7 patient diff_patient  dead diff_dead
##                              
##  1 2020-01-16     1     1     1 NA           0            0     0         0
##  2 2020-01-17     0    -1     1 NA           0            0     0         0
##  3 2020-01-18     0     0     1 NA           0            0     0         0
##  4 2020-01-19     0     0     1 NA           0            0     0         0
##  5 2020-01-20     0     0     1 NA           0            0     0         0
##  6 2020-01-21     0     0     1 NA           0            0     0         0
##  7 2020-01-22     0     0     1  0.143       0            0     0         0
##  8 2020-01-23     0     0     1  0           0            0     0         0
##  9 2020-01-24     1     1     2  0.143       0            0     0         0
## 10 2020-01-25     1     0     3  0.286       0            0     0         0
## # … with 287 more rows, and 6 more variables: cum_dead , ma7_dead ,
## #   pcr , diff_pcr , cum_pcr , ma7_pcr 
…
